<?xml version="1.0" encoding="UTF-8"?>
<svg width="16px" height="6px" viewBox="0 0 16 6" version="1.1" xmlns="http://www.w3.org/2000/svg" xmlns:xlink="http://www.w3.org/1999/xlink">
    <!-- Generator: Sketch 54.1 (76490) - https://sketchapp.com -->
    <title>Rectangle Copy 6</title>
    <desc>Created with Sketch.</desc>
    <g id="Page-1" stroke="none" stroke-width="1" fill="none" fill-rule="evenodd">
        <g id="Desktop" transform="translate(-730.000000, -125.000000)" fill="#FFFFFF">
            <g id="Active-listing" transform="translate(68.000000, 66.000000)">
                <polygon id="Rectangle-Copy-6" transform="translate(670.000000, 62.000000) scale(1, -1) translate(-670.000000, -62.000000) " points="670 59 678 65 662 65"></polygon>
            </g>
        </g>
    </g>
</svg>